%YAML 1.1
%TAG !u! tag:unity3d.com,2011:
--- !u!114 &11400000
MonoBehaviour:
  m_ObjectHideFlags: 0
  m_CorrespondingSourceObject: {fileID: 0}
  m_PrefabInstance: {fileID: 0}
  m_PrefabAsset: {fileID: 0}
  m_GameObject: {fileID: 0}
  m_Enabled: 1
  m_EditorHideFlags: 0
  m_Script: {fileID: 11500000, guid: 3b324547436a8a942bafbf6d29d3cd56, type: 3}
  m_Name: Boxer
  m_EditorClassIdentifier: 
  Name: Boxer
  thumbnail: {fileID: 21300000, guid: 29eae21e01217c744857130222e2e0f2, type: 3}
  unlockCost: 0
  stats: {x: 3, y: 1, z: 2}
  prefab: {fileID: 6927365738108597929, guid: 2f05227a5919d5546bee349f725f10cb, type: 3}
